Decision Tree accuracy:68.5185185185%

Most Informative Features: 

if kriv_neg == 0: 
  if uzasno_neg == 0: 
    if varalica_neg == 0: 
      if isprika_pos == 0: return 'pos'
      if isprika_pos == 1: return 'neg'
    if varalica_neg == 6: return 'neg'
  if uzasno_neg == 3: return 'neg'
if kriv_neg == 3: 
  if ne_neg == 4: return 'neg'
  if ne_neg == 6: return 'neg'
  if ne_neg == 7: return 'pos'
